中国 53185
美国 31840
发展 26535
经济 22087
国家 21076
问题 19992
一个 19835
工作 18904
台湾 18020
社会 17841
政府 17667
记者 17154
我们 16676
人民 16651
进行 15084
北京 14659
企业 13554
表示 13347
国际 12712
他们 12326
没有 12284
建设 12054
关系 11828
代表 11520
世界 11373
公司 11339
全国 10890
报道 10730
市场 10723
日本 10523
组织 10325
技术 10130
重要 9778
方面 9650
合作 9246
地区 9184
领导 9021
活动 8974
拉克 8971
认为 8958
教育 8766
日电 8573
伊拉 8513
管理 8483
目前 8341
已经 8140
自己 8110
有关 7979
会议 7869
总统 7866
研究 7834
安全 7703
人员 7701
委员 7698
政治 7683
可以 7622
要求 7504
通过 7408
可能 7386
中央 7341
加强 7242
一些 7175
计划 7129
部门 7105
主义 7092
本报 7052
政策 6955
改革 6945
今年 6878
联合 6843
同时 6808
就是 6807
第一 6632
指出 6569
生产 6425
科技 6416
文化 6408
干部 6327
这些 6285
提出 6245
大陆 6234
成为 6221
这个 6217
今天 6190
举行 6163
提高 6135
主要 5989
情况 5982
支持 5954
历史 5935
群众 5860
投资 5838
解决 5823
两国 5817
一步 5783
发生 5774
现在 5754
主席 5742
香港 5712
服务 5700
科学 5689
学生 5633
时间 5619
新华 5584
开始 5468
实现 5443
希望 5349
建立 5305
以及 5300
工程 5193
大学 5188
如果 5170
公投 5137
积极 5132
信息 5123
开发 5121
作为 5114
增长 5101
农民 5070
消息 5023
环境 5022
必须 4976
因为 4969
布什 4953
提供 4942
水扁 4936
陈水 4935
保护 4923
外交 4902
影响 4892
农业 4881
国务 4870
新闻 4867
华社 4853
美军 4853
和平 4834
军事 4806
生活 4784
需要 4783
决定 4782
基础 4772
思想 4736
产品 4735
调查 4696
精神 4691
民主 4646
中心 4640
到了 4624
实施 4623
法律 4618
系统 4595
世纪 4583
访问 4575
继续 4554
会主 4526
不能 4524
战略 4520
总理 4496
这种 4494
民族 4483
包括 4478
产业 4443
罗斯 4439
贸易 4433
部分 4413
事件 4412
上海 4412
其中 4408
这样 4405
部长 4392
参加 4385
项目 4376
什么 4373
地方 4344
图片 4337
机构 4316
一次 4314
特别 4297
去年 4275
制度 4271
俄罗 4254
城市 4236
农村 4234
以来 4234
年来 4215
国内 4201
但是 4200
基本 4184
规定 4180
正在 4159
共同 4157
美元 4150
增加 4109
两岸 4106
资源 4099
报告 4092
利益 4090
稳定 4089
官员 4077
开展 4076
由于 4071
努力 4032
不断 4018
媒体 3998
第二 3985
专家 3974
员会 3974
学习 3957
行动 3952
监督 3948
武器 3947
出现 3936
负责 3895
坚持 3882
目标 3871
也是 3865
务院 3861
统一 3853
接受 3841
取得 3839
能力 3831
二十 3768
调整 3757
台独 3725
责任 3708
双方 3706
战争 3694
导弹 3693
得到 3688
因此 3686
强调 3683
作用 3678
中共 3677
法轮 3675
委会 3651
其他 3646
行政 3628
发现 3620
反对 3604
严重 3583
根据 3581
机关 3565
许多 3556
轮功 3541
水平 3536
单位 3535
措施 3524
国防 3523
人士 3519
重点 3515
了解 3514
采取 3507
结构 3506
现代 3493
印度 3478
己的 3463
使用 3448
任何 3441
处理 3439
促进 3431
而且 3420
三个 3403
英国 3362
全面 3330
重大 3316
十五 3311
成功 3308
经营 3307
领域 3303
应该 3303
收入 3300
非常 3291
进入 3289
基地 3285
利用 3283
他说 3281
部队 3261
这次 3255
犯罪 3250
对于 3227
亿元 3223
期间 3215
之间 3207
方式 3192
任务 3184
实际 3175
法院 3175
不同 3155
具有 3148
一种 3138
朝鲜 3127
万元 3126
出口 3115
受到 3105
新网 3101
全球 3096
推动 3092
工业 3083
发言 3081
造成 3078
关于 3071
发表 3056
不仅 3046
达到 3029
电视 3028
存在 3022
还是 3014
集团 2982
事业 2978
规模 2971
开放 2960
完成 2957
银行 2956
最大 2956
恐怖 2952
一直 2947
斯坦 2940
条件 2940
家宝 2925
温家 2913
中华 2895
达姆 2892
书记 2888
只有 2870
萨达 2866
都是 2865
比赛 2863
形成 2859
分子 2856
竞争 2854
两个 2851
对台 2842
导人 2839
江泽 2826
所有 2826
发挥 2821
亚洲 2820
人才 2820
还有 2820
第三 2814
泽民 2813
航天 2807
创新 2807
介绍 2804
意见 2801
会见 2787
维护 2759
旅游 2753
资金 2744
一名 2744
结果 2734
获得 2728
友好 2717
作出 2716
内容 2710
当地 2710
过去 2707
一位 2688
依法 2686
不可 2686
起来 2683
主任 2674
参与 2669
推进 2652
如何 2650
同志 2632
原则 2631
保障 2628
来自 2625
重视 2608
也不 2607
公安 2600
消费 2598
飞机 2598
执行 2593
成员 2592
韩国 2591
之后 2584
宣布 2571
西部 2560
甚至 2557
充分 2554
先进 2548
十分 2546
过程 2534
经过 2533
保持 2531
虽然 2529
能够 2518
会谈 2518
质量 2512
根本 2512
准备 2508
公开 2499
学校 2491
情报 2490
袭击 2485
时候 2485
各种 2483
正式 2480
看到 2476
分析 2474
常委 2466
未来 2462
力量 2444
建议 2441
改变 2434
成立 2432
扩大 2426
传统 2422
亿美 2421
人口 2416
所以 2415
当局 2410
并不 2406
是否 2405
体制 2388
有效 2384
完全 2376
别是 2371
标准 2355
独立 2355
综合 2353
加快 2347
最后 2345
交流 2341
知识 2339
原因 2333
直接 2331
明年 2327
结束 2324
透露 2311
分别 2311
实行 2307
最近 2296
网络 2293
日前 2293
机制 2291
关注 2289
深入 2286
按照 2278
长期 2271
邪教 2270
电话 2262
控制 2255
打击 2253
个月 2251
卫星 2249
制定 2245
显示 2243
不过 2243
文明 2242
结合 2235
财政 2228
明确 2219
金融 2216
健康 2215
规范 2213
欧洲 2203
据新 2200
宣传 2199
医院 2178
阶段 2163
最高 2161
当时 2159
高度 2153
相关 2152
威胁 2151
欧盟 2151
青年 2142
召开 2140
制造 2140
形势 2139
色列 2138
言人 2135
以色 2131
另一 2130
广大 2130
针对 2101
防部 2101
解放 2093
体系 2088
优势 2084
事实 2080
立法 2078
对此 2075
全部 2067
检察 2064
发射 2057
立场 2054
创造 2053
人权 2051
很多 2048
意义 2046
具体 2044
劳动 2033
爆炸 2032
万人 2032
落实 2030
完善 2029
认真 2027
下午 2022
保证 2022
济发 2022
自治 2019
交部 2019
良好 2015
基金 2014
首次 2012
帮助 2009
此次 2008
各地 2006
价格 1998
检查 1996
运动 1994
这里 1994
采访 1989
报记 1988
比较 1983
政协 1982
办公 1977
知道 1972
卫生 1972
变化 1968
选举 1962
体育 1961
理论 1960
公里 1956
时代 1954
持续 1953
生态 1952
日消 1948
经贸 1947
设施 1946
代化 1945
次会 1943
超过 1942
产生 1942
只是 1938
欢迎 1932
讨论 1932
设计 1931
系列 1930
凤凰 1924
附图 1920
随着 1919
新世 1918
认识 1917
多云 1917
形式 1915
面对 1915
文章 1914
各级 1913
个代 1910
题上 1910
十二 1909
协会 1908
军队 1906
家庭 1904
带来 1904
实践 1897
时期 1897
引起 1896
举办 1894
协议 1890
一项 1888
海军 1886
经验 1885
或者 1879
民党 1879
人类 1875
卫视 1873
考虑 1872
更多 1871
更加 1861
出席 1856
副主 1855
自然 1855
关键 1849
案件 1849
自由 1849
表明 1848
及其 1842
百分 1839
明显 1832
规划 1829
共产 1828
关部 1818
凰卫 1815
才能 1812
意识 1811
真正 1811
艺术 1810
场经 1806
祖国 1801
事务 1797
共和 1792
选择 1791
电子 1789
素质 1788
出版 1786
不少 1783
无法 1778
改善 1776
投入 1772
联系 1765
上午 1764
华盛 1758
孩子 1753
居民 1752
盛顿 1751
表现 1751
告诉 1748
民币 1748
小时 1744
利亚 1742
汽车 1737
确定 1735
斗争 1734
地位 1730
西藏 1729
组成 1728
部署 1727
执法 1727
成果 1726
现场 1726
公布 1723
广泛 1721
对外 1721
石油 1714
办法 1705
强烈 1703
年代 1700
集中 1696
论坛 1695
增强 1695
突出 1695
培训 1692
职工 1689
业务 1689
现象 1686
安排 1685
死亡 1683
势力 1683
就业 1683
社北 1679
感到 1677
巨大 1672
十年 1672
儿童 1670
最终 1666
产党 1666
来说 1666
表团 1664
应当 1664
基层 1663
电影 1662
减少 1661
空间 1661
飞行 1660
分之 1659
态度 1654
反映 1651
生命 1646
来越 1645
革命 1641
左右 1636
相信 1634
越来 1634
每年 1634
在伊 1633
困难 1630
进口 1623
指导 1617
有限 1612
再次 1611
说明 1610
价值 1609
统计 1609
大量 1608
报报 1608
纽约 1606
近日 1605
队伍 1602
京市 1602
首先 1599
近年 1596
训练 1593
发布 1592
当前 1589
火箭 1588
面临 1588
新社 1588
警方 1587
专业 1587
学院 1583
大使 1583
范围 1579
昨天 1575
除了 1572
一切 1572
尽管 1569
秩序 1560
相当 1559
拥有 1558
责人 1558
手段 1556
报讯 1555
进步 1552
司法 1552
小组 1549
整个 1549
另外 1543
一样 1542
如此 1541
程度 1537
仍然 1530
奥运 1529
一条 1523
航空 1519
伊朗 1517
很大 1516
资料 1515
导致 1514
交通 1512
装备 1511
符合 1510
做好 1510
治理 1509
进党 1508
事情 1505
然而 1503
广东 1502
需求 1499
先生 1492
利于 1492
道德 1491
贡献 1486
正确 1486
只要 1486
力度 1485
大常 1485
攻击 1484
指挥 1478
资产 1474
加入 1473
此外 1472
第四 1471
多次 1471
多数 1466
所谓 1461
讲话 1459
切实 1459
土地 1459
一批 1457
今后 1456
三十 1456
严格 1454
确保 1454
挑战 1451
妇女 1427
先后 1424
相互 1417
高级 1417
将于 1416
台海 1414
粮食 1413
设备 1413
因素 1410
批准 1409
机场 1407
那么 1406
那些 1406
社记 1406
锦涛 1403
评论 1403
胡锦 1402
做出 1402
展开 1400
协调 1399
声明 1398
销售 1397
坚决 1395
内部 1392
突破 1388
涉及 1387
医疗 1386
非法 1384
人数 1382
巴格 1378
状况 1377
保险 1376
湾问 1371
承诺 1370
民众 1370
几个 1368
留学 1367
台北 1367
报导 1366
法规 1364
体现 1364
阿拉 1361
事故 1349
主权 1348
移民 1347
副总 1346
几年 1346
数字 1345
批评 1345
商业 1343
格达 1340
特色 1339
令人 1338
迅速 1337
签署 1337
商品 1335
合理 1334
大规 1333
贯彻 1331
各项 1329
星期 1327
方案 1327
法制 1324
民群 1323
同意 1320
区域 1314
矛盾 1312
逐步 1312
权利 1310
其它 1309
必要 1309
上述 1308
进程 1305
学者 1305
培养 1304
少年 1303
武装 1301
动力 1300
尤其 1298
改造 1298
注意 1296
破坏 1293
战斗 1290
危机 1290
方向 1290
之前 1290
运会 1290
首都 1289
给予 1288
教授 1282
分裂 1282
压力 1282
正常 1276
广州 1274
作战 1274
转变 1273
这位 1268
其实 1267
面积 1266
朋友 1265
秘书 1257
宪法 1257
军方 1255
九届 1253
联盟 1252
效益 1251
关心 1251
公室 1249
义务 1249
反应 1248
革开 1248
药品 1247
建筑 1245
计算 1245
违法 1240
报北 1240
用于 1240
限制 1238
研制 1238
一般 1235
局势 1234
成绩 1233
础上 1233
日讯 1231
清楚 1230
士兵 1230
乡镇 1227
大型 1227
海外 1226
当然 1223
太空 1222
十六 1219
恢复 1216
座谈 1216
适应 1216
现实 1215
前往 1214
贫困 1213
治安 1210
形象 1209
重庆 1208
曾经 1205
年轻 1198
这项 1198
广告 1193
纪念 1191
交易 1189
科研 1187
党委 1187
修改 1186
据悉 1185
西方 1178
立即 1177
现状 1174
铁路 1172
观念 1171
况下 1171
道路 1170
五十 1170
集体 1169
教科 1167
镕基 1165
际上 1165
导干 1164
及时 1163
朱镕 1161
基斯 1161
始终 1160
放军 1160
局长 1160
业化 1160
购买 1158
冠军 1158
对话 1156
方针 1155
邀请 1154
运输 1153
愿意 1151
化建 1151
证明 1150
呼吁 1149
南京 1149
资本 1149
内地 1147
贷款 1145
承认 1144
危险 1142
非洲 1142
演习 1141
警察 1139
网站 1139
社区 1138
速度 1136
大选 1136
团结 1133
回答 1132
附近 1131
巴基 1131
四川 1129
残疾 1128
只能 1128
警告 1127
新技 1127
下降 1125
华民 1123
李鹏 1122
南省 1122
从事 1122
合同 1122
密切 1120
专门 1120
核心 1117
国驻 1117
还要 1117
拿大 1116
主张 1116
数据 1115
谈判 1114
党员 1113
五年 1112
紧张 1108
费者 1108
权力 1108
理解 1108
浙江 1107
育活 1106
拒绝 1104
加拿 1104
不足 1104
难以 1104
防御 1103
空军 1103
不久 1101
等方 1101
丰富 1100
普遍 1099
尊重 1099
职业 1099
潜艇 1098
申请 1098
山东 1098
担心 1092
整体 1091
设立 1091
分钟 1090
文件 1090
内外 1090
小学 1090
担任 1088
吸引 1087
决策 1087
动员 1087
高层 1086
十三 1081
取消 1080
污染 1079
人物 1078
并且 1077
平均 1075
限公 1074
天下 1074
达成 1073
鼓励 1069
怎么 1067
各方 1067
亚太 1066
从而 1065
直升 1064
走向 1064
斯科 1064
优秀 1062
届全 1062
作风 1062
小雨 1061
顺利 1061
连续 1059
财产 1059
避免 1058
舆论 1058
快速 1058
至今 1055
第十 1055
谈会 1054
肯定 1053
冲突 1052
州市 1051
四次 1051
状态 1050
河南 1050
作品 1050
外长 1049
自身 1048
公路 1047
损失 1046
少数 1046
趋势 1045
解释 1045
工商 1043
推出 1043
特点 1042
至少 1041
深化 1041
允许 1039
习教 1039
东西 1039
考察 1038
不知 1037
湖南 1036
升机 1036
几乎 1034
材料 1031
毛泽 1031
周年 1029
泽东 1028
程序 1027
道说 1027
援助 1026
腐败 1025
年底 1025
观众 1024
构调 1024
评估 1022
经常 1022
主持 1020
外资 1019
掌握 1017
李洪 1016
百姓 1015
驻伊 1015
视台 1015
著名 1013
伟大 1013
评价 1010
遭到 1009
通知 1009
做法 1009
际社 1008
证券 1007
尔德 1006
洪志 1005
上升 1005
界上 1003
放弃 1002
副部 1000
使馆 998
深圳 996
派出 996
审判 994
委书 994
满意 993
即将 993
并没 993
普通 989
尽快 988
找到 988
同样 987
一致 987
月十 985
主题 985
最新 985
环保 983
疾人 983
书长 982
特殊 981
村民 981
海关 981
双边 980
月二 980
多种 980
毕业 977
协商 977
议题 977
各界 976
平等 975
争取 972
察机 971
如今 968
月份 967
要思 967
民共 967
一九 967
来源 966
预算 965
莫斯 965
探索 963
宗教 963
多万 963
市委 963
供了 963
多名 962
也就 961
整顿 957
能源 957
无论 955
防止 954
信心 954
治区 951
个小 950
仪式 948
女排 948
核武 948
央政 947
领土 946
处于 946
访美 946
为什 946
商务 945
江苏 944
一份 943
海峡 942
十七 941
公共 941
福建 940
科书 939
百万 938
台商 937
拉伯 936
济增 936
勒斯 935
执政 934
天津 933
采用 933
二月 933
扶贫 931
风险 931
女子 931
文学 931
十四 929
草案 928
万美 928
通信 927
续发 927
数量 926
日益 926
维持 924
心理 923
权益 922
比亚 920
食品 919
四十 919
政权 915
网上 915
复杂 914
表达 914
生物 913
平方 913
各个 913
审议 912
功能 912
议员 912
澳门 911
城镇 909
访时 908
受伤 906
觉得 905
不再 905
局面 904
友谊 903
纷纷 902
预计 902
部副 902
投票 900
要把 900
纺织 899
纲要 899
伊斯 899
当天 899
属于 898
研讨 897
应用 897
巴勒 896
电信 896
连战 895
奋斗 894
软件 894
十八 893
滋病 891
两名 890
身份 889
启动 887
禁止 886
李登 886
已成 886
联网 885
团体 885
春节 884
机遇 884
主管 884
谈话 883
登辉 882
日晚 882
新型 882
律师 880
各类 880
模式 878
反恐 878
你们 878
男子 877
演出 876
不满 876
湾当 874
法治 873
办理 872
承担 871
也没 871
教师 870
离开 870
职务 869
还没 868
多少 868
抵达 867
比例 867
首相 866
似乎 865
官兵 864
强化 864
公正 864
全省 860
繁荣 859
电脑 857
白宫 856
紧急 856
文艺 856
表演 856
互联 854
一旦 854
选手 853
开幕 852
改进 852
每天 851
错误 850
费用 850
小平 850
官方 850
队员 848
见了 848
运行 847
地震 845
引导 845
即使 842
实验 842
整治 841
儿子 838
它们 838
越南 836
绿色 835
炸弹 835
初步 835
教练 835
成都 835
业结 834
第五 833
伙伴 832
感谢 831
效果 831
位于 831
同胞 830
标志 830
配合 830
每个 830
球化 829
共识 828
让人 828
防卫 824
突然 821
终于 821
这么 821
胜利 820
产权 820
工资 819
深刻 818
飞弹 816
通讯 816
阿富 815
履行 815
不愿 815
海南 813
重申 812
学术 812
试验 811
采购 811
容易 811
富汗 810
础设 810
推广 809
联邦 808
史上 808
降低 807
变成 807
对伊 807
会副 806
值得 803
停止 802
此间 802
泰国 800
足球 799
制宪 799
原来 799
艾滋 798
威尔 798
还将 798
层次 797
节目 797
据报 797
刚刚 796
普京 796
境内 796
自卫 796
预防 795
协助 795
邓小 792
负担 791
河北 791
运用 791
构成 791
侦察 790
接触 788
做到 788
追求 787
比如 787
总体 787
青少 786
方米 786
看法 786
载人 785
人均 785
围绕 784
一段 784
土耳 783
武汉 782
耳其 782
算机 782
相比 781
农产 779
引发 779
多元 779
平与 779
观察 778
提案 778
抓住 776
差距 775
入世 775
来看 775
辽宁 774
交换 774
新疆 774
登记 774
究所 774
政党 774
职能 773
但他 773
湖北 772
岸关 772
之外 772
路线 771
予以 771
什总 771
东北 770
法官 770
语言 769
意味 769
加坡 769
女儿 768
卫队 768
步加 767
好合 767
刑事 766
高校 765
类似 764
决议 764
等问 764
位置 761
更好 761
广场 761
此前 761
条约 760
察院 759
东省 759
会晤 757
必然 757
缺乏 756
公斤 756
澳大 756
基因 756
前景 755
巴西 755
用户 754
热情 753
间谍 750
主党 750
轨道 749
大幅 749
对手 749
招待 748
信用 747
暴力 746
违反 742
竞选 742
收费 742
地球 742
治疗 741
平衡 740
高兴 740
东南 739
税收 738
安局 738
音乐 737
坚定 736
次访 736
什政 736
操作 735
决赛 735
治局 734
引进 734
婚姻 733
老师 733
查处 732
统布 732
经历 732
十九 730
资者 730
危害 729
广播 729
随后 729
较大 729
投法 729
展示 726
九五 725
成效 725
渠道 724
姚明 724
马克 722
年初 722
天气 721
身体 721
医生 721
证实 721
创作 721
仅是 721
性公 721
谈到 720
博士 719
晚上 719
南部 719
总结 718
损害 717
球队 717
使得 717
游客 716
鲍威 715
参观 715
东京 714
临时 713
高速 713
仅仅 712
被告 712
东亚 711
母亲 710
依然 710
货币 709
落后 708
公众 708
院长 708
法庭 707
真实 707
逐渐 706
高科 706
小姐 705
尼亚 705
怖分 703
满足 702
赢得 702
讨会 702
华侨 700
省委 699
她们 698
然后 698
抓好 697
证据 697
巩固 696
转移 696
带动 696
患者 695
清华 695
至于 695
巴黎 694
民警 694
万多 694
确实 693
主办 693
日至 692
逮捕 691
物质 691
近期 691
下去 691
英雄 690
态环 688
决心 688
热烈 686
海市 686
失去 685
健全 685
天然 685
八十 683
息化 683
动物 683
回到 683
被捕 680
董事 680
大楼 680
不容 680
图书 679
访华 679
当选 679
争力 679
最好 679
制改 679
彻底 678
充满 678
赔偿 677
返回 677
生存 677
总局 677
经费 677
效率 676
办事 676
优化 675
绝对 675
总书 675
途径 674
半年 674
估计 673
克斯 673
前已 673
半岛 672
安置 672
汇报 672
预报 672
武力 672
义市 672
转多 670
与此 670
格鲁 669
父母 668
王伟 668
提升 668
分配 668
对象 668
理由 668
依靠 666
九九 666
完整 666
严打 666
依据 666
利比 666
等等 666
角度 665
长李 664
那样 663
那里 662
大批 661
安徽 660
沈阳 658
某些 658
圆满 656
将继 655
病毒 654
三峡 654
诉记 654
签订 653
观点 653
长江 653
理想 653
推行 653
周刊 652
显然 652
很好 652
场所 652
务卿 651
非典 651
妻子 650
职责 648
示范 648
神舟 647
司令 645
很快 645
布希 645
到底 645
营企 644
陆军 644
水资 643
教组 642
能否 641
午在 641
收到 640
东方 640
考试 639
否认 639
理温 638
两次 638
怎样 637
紧密 637
树立 637
女性 637
接待 634
条例 633
往往 633
具备 632
读者 632
自杀 632
性质 632
此事 632
陕西 631
并非 631
海洋 630
六十 630
吉亚 629
蒙古 628
鲁吉 628
摄影 628
演讲 628
故事 628
昨日 628
感觉 627
增收 627
南亚 627
界各 627
建交 627
谴责 626
种植 626
立委 626
简单 625
听取 625
绿化 625
北省 624
高达 624
专项 623
克思 623
六方 623
众多 623
侵略 622
病人 622
族自 621
万吨 620
嫌疑 619
股份 619
千万 619
西省 619
待会 619
闻发 619
夫人 619
四个 619
搞好 618
思路 618
西亚 618
太平 617
感染 616
升级 616
声称 616
留下 616
唯一 615
识到 615
想到 615
距离 614
背景 613
探测 613
而言 613
把握 612
飞船 612
交往 612
水利 612
秘密 611
云南 611
家属 611
十万 610
展览 609
供应 609
手机 609
激烈 608
班子 608
很难 608
确认 606
步伐 605
审批 605
怀疑 604
味着 604
山西 604
项工 604
安机 604
规则 603
感受 603
走私 602
候选 602
制裁 602
照片 601
报纸 601
苏联 601
占领 601
岛内 601
不够 601
企图 600
民收 600
斯兰 599
移动 599
身上 599
艰苦 598
姆斯 598
并将 598
尚未 597
阳市 596
克战 596
面向 596
资格 595
相应 595
平统 595
伦敦 594
拉姆 594
几十 594
名单 593
可持 593
本身 592
追究 591
遇到 591
资企 591
走出 591
万亩 590
吉林 590
世贸 590
父亲 589
利伟 589
学技 589
表态 588
失业 588
本质 588
速发 588
华网 587
营业 587
咨询 586
痴迷 584
气象 584
客观 584
抗议 583
二次 583
种种 582
严厉 581
工具 581
西安 581
育部 581
小泉 580
看来 580
围内 579
杀伤 578
对抗 578
军委 578
监管 577
品种 577
务委 577
客人 577
沟通 574
练习 574
规律 573
之所 573
济体 573
典型 572
排除 572
演员 572
信任 572
优质 571
性能 571
运作 570
磋商 569
墨西 569
文物 567
西哥 566
自觉 566
钢铁 565
喜欢 565
许可 564
其琛 563
杨利 563
海域 563
自焚 562
钱其 562
普及 562
角色 561
太阳 561
伤亡 560
外汇 560
老百 560
合起 560
济秩 559
术产 559
越多 558
实质 558
各自 558
此同 558
策略 557
联赛 557
出售 557
直到 557
路上 557
伤害 555
课题 555
审查 555
感情 555
诉讼 554
公园 554
识产 554
绝不 554
特区 554
扩散 553
注重 552
合格 552
传播 551
愿望 550
院副 550
会堂 549
月底 549
手术 549
以往 549
失败 548
相结 548
最佳 547
转化 547
段时 547
支付 546
岗位 546
股市 546
纪录 545
埃及 545
消防 544
爆发 544
其次 543
严肃 542
菲尔 542
亲切 542
试图 542
神文 542
也许 542
接到 542
宏观 541
知名 541
站在 541
侵犯 540
得更 540
监狱 539
无疑 539
垃圾 538
分歧 537
不懈 537
权威 537
京举 537
环节 536
乐部 536
往来 536
球员 536
分点 536
气氛 535
总额 535
女士 535
第九 535
俱乐 534
弹防 534
同期 534
人死 534
布莱 533
检验 533
九十 533
抵抗 532
永远 532
话题 532
议案 532
个百 532
消除 531
利润 530
三次 530
北约 529
成熟 528
七十 528
怖主 528
指标 528
核问 528
对待 528
常务 528
带领 527
局局 527
寻求 526
方便 526
防治 526
车辆 525
首脑 525
联军 525
披露 524
上周 523
涉嫌 522
济结 522
公约 522
为止 522
林业 522
股票 521
江省 521
医学 521
导下 521
言论 520
争议 520
制约 520
科院 520
之际 520
总值 519
指责 519
几天 519
广西 519
斯特 518
季度 517
思考 517
试点 517
创业 517
三通 517
凌晨 516
显著 516
福州 516
平洋 516
服装 516
要坚 516
年龄 515
江西 514
云转 513
性武 511
外贸 511
疑人 511
两位 511
青岛 510
李瑞 509
幅度 509
亚欧 509
让我 509
一套 509
牺牲 508
寻找 508
截至 508